simWorkspace/I2CCtrl/test.vcd
$version Generated by VerilatedVcd $end
$date Fri Jul  9 14:26:37 2021
 $end
$timescale   1ps $end

 $scope module TOP $end
  $var wire  1 I clk $end
  $var wire  1 < io_config_frame_addrmode [0:0] $end
  $var wire  1 H io_i2c_scl_oe $end
  $var wire  1 F io_i2c_scl_read $end
  $var wire  1 E io_i2c_scl_write $end
  $var wire  1 G io_i2c_sda_oe $end
  $var wire  1 D io_i2c_sda_read $end
  $var wire  1 C io_i2c_sda_write $end
  $var wire  8 B io_read_payload [7:0] $end
  $var wire  1 A io_read_ready $end
  $var wire  1 @ io_read_valid $end
  $var wire  8 ? io_write_payload [7:0] $end
  $var wire  1 > io_write_ready $end
  $var wire  1 = io_write_valid $end
  $var wire  1 J reset $end
  $scope module I2CCtrl $end
   $var wire  8 2 I2cSlave_1_io_read_payload [7:0] $end
   $var wire  1 1 I2cSlave_1_io_read_valid $end
   $var wire  1 S I2cSlave_1_io_scl_out_en $end
   $var wire  1 # I2cSlave_1_io_sda_out $end
   $var wire  1 . I2cSlave_1_io_sda_out_en $end
   $var wire  1 K I2cSlave_1_io_write_ready $end
   $var wire  1 I clk $end
   $var wire  1 < io_config_frame_addrmode [0:0] $end
   $var wire 40 L io_config_frame_addrmode_string [39:0] $end
   $var wire  1 H io_i2c_scl_oe $end
   $var wire  1 F io_i2c_scl_read $end
   $var wire  1 E io_i2c_scl_write $end
   $var wire  1 G io_i2c_sda_oe $end
   $var wire  1 D io_i2c_sda_read $end
   $var wire  1 C io_i2c_sda_write $end
   $var wire  8 B io_read_payload [7:0] $end
   $var wire  1 A io_read_ready $end
   $var wire  1 @ io_read_valid $end
   $var wire  8 ? io_write_payload [7:0] $end
   $var wire  1 > io_write_ready $end
   $var wire  1 = io_write_valid $end
   $var wire  1 J reset $end
   $scope module I2cSlave_1 $end
    $var wire  3 + bitCounter_value [2:0] $end
    $var wire  1 I clk $end
    $var wire  1 / edge_sclFall $end
    $var wire  1 N edge_sclRise $end
    $var wire  1 O edge_sdaFall $end
    $var wire  1 P edge_sdaRise $end
    $var wire  1 0 edge_start $end
    $var wire  1 Q edge_stop $end
    $var wire  1 < io_configFrame_addrmode [0:0] $end
    $var wire 40 L io_configFrame_addrmode_string [39:0] $end
    $var wire  8 2 io_read_payload [7:0] $end
    $var wire  1 A io_read_ready $end
    $var wire  1 1 io_read_valid $end
    $var wire  1 E io_scl $end
    $var wire  1 S io_scl_out_en $end
    $var wire  1 $ io_scl_regNext $end
    $var wire  1 3 io_scl_regNext_1 $end
    $var wire  1 C io_sda_in $end
    $var wire  1 % io_sda_in_regNext $end
    $var wire  1 & io_sda_in_regNext_1 $end
    $var wire  1 # io_sda_out $end
    $var wire  1 . io_sda_out_en $end
    $var wire  8 ? io_write_payload [7:0] $end
    $var wire  1 K io_write_ready $end
    $var wire  1 = io_write_valid $end
    $var wire  1 J reset $end
    $var wire  2 9 sample_Counter [1:0] $end
    $var wire  1 4 sample_Enable $end
    $var wire  1 ; sample_finish $end
    $var wire  1 : sample_finish_ff $end
    $var wire  1 ' sample_value $end
    $var wire  7 T stateMachine_DeviceID [6:0] $end
    $var wire  8 ( stateMachine_shifter [7:0] $end
    $var wire  3 5 stateMachine_state [2:0] $end
    $var wire 88 6 stateMachine_state_string [87:0] $end
    $var wire  1 , when_I2CSlave_l105 $end
    $var wire  1 ) when_I2CSlave_l106 $end
    $var wire  1 / when_I2CSlave_l116 $end
    $var wire  1 - when_I2CSlave_l117 $end
    $var wire  1 ; when_I2CSlave_l122 $end
    $var wire  1 * when_I2CSlave_l124 $end
    $var wire  1 = when_I2CSlave_l125 $end
    $var wire  1 ; when_I2CSlave_l141 $end
    $var wire  1 , when_I2CSlave_l142 $end
    $var wire  1 ; when_I2CSlave_l151 $end
    $var wire  1 C when_I2CSlave_l152 $end
    $var wire  1 , when_I2CSlave_l167 $end
    $var wire  1 / when_I2CSlave_l177 $end
    $var wire  1 - when_I2CSlave_l178 $end
    $var wire  1 A when_I2CSlave_l184 $end
    $var wire  1 , when_I2CSlave_l75 $end
    $var wire  1 R when_I2CSlave_l92 $end
   $upscope $end
  $upscope $end
 $upscope $end
$enddefinitions $end


#0
1#
0$
0%
0&
0'
b00000000 (
1)
0*
b101 +
0,
0-
0.
0/
00
01
b00000000 2
03
04
b000 5
b0100100101000100010011000100010100100000001000000010000000100000001000000010000000100000 6
b00 9
0:
1;
0<
1=
0>
b01100110 ?
0@
1A
b00000000 B
1C
1D
1E
0F
0G
0H
0I
1J
0K
b0101001101000101010101100100010101001110 L
1N
0O
1P
1Q
1R
0S
b0110011 T
#160000
0J
#170000
1$
1%
1&
b110 +
13
14
0;
1I
0N
0P
0Q
0R
#175000
0I
#180000
b01 9
1I
#185000
0I
#190000
b10 9
1I
#195000
0I
#200000
b11 9
1:
1I
#205000
0I
#210000
1'
b00 9
0:
1;
1I
#215000
0I
#220000
b111 +
1,
04
0;
1I
